%YAML 1.1
%TAG !u! tag:unity3d.com,2011:
--- !u!114 &11400000
MonoBehaviour:
  m_ObjectHideFlags: 0
  m_CorrespondingSourceObject: {fileID: 0}
  m_PrefabInstance: {fileID: 0}
  m_PrefabAsset: {fileID: 0}
  m_GameObject: {fileID: 0}
  m_Enabled: 1
  m_EditorHideFlags: 0
  m_Script: {fileID: 11500000, guid: c2b4cf977d3994402bc3f564d4484bc5, type: 3}
  m_Name: LorraineShadow
  m_EditorClassIdentifier: 
  fullName: Lorraine's Shadow
  portrait: {fileID: 21300000, guid: 8605de2e5d1a044e88ea1658c50ff993, type: 3}
